,category_id,views,likes,dislikes,comment_count,video_count
0,1,495122904,8049242,445053,888581,204
1,2,20406847,349318,24374,43857,14
2,10,11653853541,227566402,9498663,17746470,916
3,15,37028580,934229,22379,85247,42
4,17,231574920,3736691,384740,563140,222
5,19,10717623,97076,3843,11610,10
6,20,143827975,4537811,179863,549873,175
7,22,380206720,10083958,855841,1363904,299
8,23,417015895,13652870,481350,1468853,212
9,24,2279102084,55217765,6847908,8848273,889
10,25,99064864,1971655,266952,663282,128
11,26,91930783,3741727,124898,499371,200
12,27,29669336,1026495,41929,108067,38
13,28,85714412,1806952,93773,284968,43
14,29,30552239,2144934,554473,715496,6
15,43,1709880,44588,361,4335,1
