,category_id,views,likes,dislikes,comment_count,video_count
0,1,3995874851,88599476,3995378,11066070,5008
1,2,410191193,9784635,361108,1456692,1605
2,10,27137434844,842222362,33474764,73651076,7102
3,15,354463179,11148060,279926,1942207,803
4,17,5024495705,84906700,4967333,10823955,8148
5,19,174449266,3737788,155727,574561,493
6,20,1605611628,64869946,3568335,10620599,3245
7,22,4805980199,139227554,10126876,20366540,12509
8,23,5023101600,232225696,7306703,23480709,7094
9,24,18555979275,484809703,38833576,69080522,29363
10,25,2213620486,38451330,5199607,11447011,9085
11,26,2251909644,72134827,2647213,10456671,5336
12,27,628298288,25671241,908165,3231716,2119
13,28,1662590595,49243975,2197660,8078315,2259
14,29,236723512,19226077,5333532,5289433,378
15,30,8962405,133089,6629,7433,12
16,43,168652154,1233258,307080,180198,315
17,44,18608,138,9,0,2
