word,count
"""2017""",1386
"""2018""",2874
"""amazing""",351
"""amour""",304
"""animation""",460
"""basketball""",719
"""beauty""",516
"""best""",567
"""breaking news""",425
"""celebrity""",1133
"""challenge""",801
"""chef""",315
"""christmas""",416
"""clip""",832
"""CNN""",392
"""Comedy""",4948
"""compilation""",419
"""cooking""",489
"""couple""",310
"""cute""",316
"""dance""",378
"""deutsch""",729
"""Deutschland""",351
"""Donald Trump""",2652
"""Drama""",909
"""education""",314
"""Entertainment""",1200
"""essen""",325
"""fail""",464
"""family""",922
"""fashion""",429
"""FBE""",378
"""film""",1415
"""Food""",991
"""Football""",1338
"""France""",878
"""freestyle""",345
"""fun""",764
"""funny video""",726
"""funny videos""",439
"""funny""",3491
"""Funny""",618
"""game""",2002
"""german""",483
"""HD""",369
"""highlight""",1730
"""hilarious""",477
"""hip hop""",538
"""hollywood""",437
"""host""",416
"""humor""",2266
"""instagram""",314
"""interview""",1316
"""jokes""",579
"""kids""",370
"""late night""",403
"""laugh""",305
"""lifestyle""",357
"""live""",955
"""lol""",358
"""love""",468
"""lustig""",313
"""makeup""",453
"""Movie""",1123
"""Music""",2168
"""musique""",352
"""NBA""",790
"""NBC""",1243
"""News""",3191
"""official""",445
"""paris""",321
"""parody""",422
"""piriyamanaval""",1204
"""plays""",342
"""podcast""",439
"""Politics""",1455
"""Pop""",875
"""prank""",407
"""program""",303
"""promo""",457
"""radio""",367
"""Rap""",1349
"""Reaction""",1331
"""recipe""",393
"""replay""",302
"""review""",1122
"""SAT.1""",405
"""satire""",480
"""science""",671
"""show""",830
"""sketch""",632
"""snl""",346
"""soccer""",317
"""sports""",1241
"""talent""",395
"""Talk Show""",1064
"""Television""",1162
"""test""",539
"""thefinebros""",384
"""tips""",304
"""Trailer""",1760
"""tricks""",491
"""Tutorial""",1015
"""TV show""",2528
"""unboxing""",431
"""vs""",424
"""wrestling""",321
"""youtube""",949
