,category_id,views,likes,dislikes,comment_count
0,1,956665069,22096126,995357,2815144
1,2,130335861,4236533,133802,472162
2,10,2796427006,134361149,6028771,13063654
3,15,60141046,2214416,56370,456570
4,17,1223024702,19504680,1170218,2364415
5,19,16600835,704202,25360,84879
6,20,388190278,16119050,1044969,2577598
7,22,1366928039,39513218,2986672,5665327
8,23,1130214268,47514144,1715401,6062465
9,24,4696518868,136273371,10662006,18677589
10,25,597195281,9873477,1735391,2943448
11,26,414152422,10369902,480457,1238238
12,27,96069145,4516396,160946,563509
13,28,310368688,9185652,474940,1968895
14,29,95905760,8212436,2629207,1966089
15,30,2289027,41807,1811,2153
16,43,49046271,350425,96194,59042
17,44,8804,0,0,0
